…
df_antibiotics_longer
```

    ## # A tibble: 48 × 5
    ##    bacteria              gram     antibiotic       mic mic_range
    ##    <fct>                 <chr>    <chr>          <dbl> <fct>    
    ##  1 Aerobacter aerogenes  negative penicillin   870     High     
    ##  2 Aerobacter aerogenes  negative streptomycin   1     Low      
    ##  3 Aerobacter aerogenes  negative neomycin       1.6   Low      
    ##  4 Brucella abortus      negative penicillin     1     Low      
    ##  5 Brucella abortus      negative streptomycin   2     Low      
    ##  6 Brucella abortus      negative neomycin       0.02  Low      
    ##  7 Bacillus anthracis    positive penicillin     0.001 Low      
    ##  8 Bacillus anthracis    positive streptomycin   0.01  Low      
    ##  9 Bacillus anthracis    positive neomycin       0.007 Low      
    ## 10 Diplococcus pneumonia positive penicillin     0.005 Low      
    ## # ℹ 38 more rows
…
Note that your visual must be *qualitatively different* from *all* of
your other visuals.

``` r
df_antibiotic_eff <-
  df_antibiotics_longer %>%
  mutate(effective = ifelse(mic <= 0.1, "yes", "no"))

df_antibiotic_eff
```

    ## # A tibble: 48 × 6
    ##    bacteria              gram     antibiotic       mic mic_range effective
    ##    <fct>                 <chr>    <chr>          <dbl> <fct>     <chr>    
    ##  1 Aerobacter aerogenes  negative penicillin   870     High      no       
    ##  2 Aerobacter aerogenes  negative streptomycin   1     Low       no       
    ##  3 Aerobacter aerogenes  negative neomycin       1.6   Low       no       
    ##  4 Brucella abortus      negative penicillin     1     Low       no       
    ##  5 Brucella abortus      negative streptomycin   2     Low       no       
    ##  6 Brucella abortus      negative neomycin       0.02  Low       yes      
    ##  7 Bacillus anthracis    positive penicillin     0.001 Low       yes      
    ##  8 Bacillus anthracis    positive streptomycin   0.01  Low       yes      
    ##  9 Bacillus anthracis    positive neomycin       0.007 Low       yes      
    ## 10 Diplococcus pneumonia positive penicillin     0.005 Low       yes      
    ## # ℹ 38 more rows
…
