…
## Normalize

<!-- ------------------------- -->

### **q5** Use the `population` estimates in `df_data` to normalize `cases` and `deaths` to produce per 100,000 counts \[3\]. Store these values in the columns `cases_per100k` and `deaths_per100k`.

``` r
#pulling this for reference later
df_data %>%
  filter(is.na(fips))
```

    ## # A tibble: 23,678 × 7
    ##    date       county        state        fips  cases deaths population
    ##    <date>     <chr>         <chr>        <chr> <dbl>  <dbl>      <dbl>
    ##  1 2020-03-01 New York City New York     <NA>      1      0         NA
    ##  2 2020-03-01 Unknown       Rhode Island <NA>      2      0         NA
    ##  3 2020-03-02 New York City New York     <NA>      1      0         NA
    ##  4 2020-03-02 Unknown       Rhode Island <NA>      2      0         NA
    ##  5 2020-03-03 New York City New York     <NA>      2      0         NA
    ##  6 2020-03-03 Unknown       Rhode Island <NA>      2      0         NA
    ##  7 2020-03-04 New York City New York     <NA>      2      0         NA
    ##  8 2020-03-04 Unknown       Rhode Island <NA>      2      0         NA
    ##  9 2020-03-05 New York City New York     <NA>      4      0         NA
    ## 10 2020-03-05 Unknown       Rhode Island <NA>      2      0         NA
    ## # ℹ 23,668 more rows

``` r
df_data %>%
  filter(is.na(population))
```

    ## # A tibble: 28,822 × 7
    ##    date       county        state        fips  cases deaths population
    ##    <date>     <chr>         <chr>        <chr> <dbl>  <dbl>      <dbl>
    ##  1 2020-03-01 New York City New York     <NA>      1      0         NA
    ##  2 2020-03-01 Unknown       Rhode Island <NA>      2      0         NA
    ##  3 2020-03-02 New York City New York     <NA>      1      0         NA
    ##  4 2020-03-02 Unknown       Rhode Island <NA>      2      0         NA
    ##  5 2020-03-03 New York City New York     <NA>      2      0         NA
    ##  6 2020-03-03 Unknown       Rhode Island <NA>      2      0         NA
    ##  7 2020-03-04 New York City New York     <NA>      2      0         NA
    ##  8 2020-03-04 Unknown       Rhode Island <NA>      2      0         NA
    ##  9 2020-03-05 New York City New York     <NA>      4      0         NA
    ## 10 2020-03-05 Unknown       Rhode Island <NA>      2      0         NA
    ## # ℹ 28,812 more rows

``` r
df_data %>%
  filter(is.na(population) & fips >= 0)
```

    ## # A tibble: 5,144 × 7
    ##    date       county     state          fips  cases deaths population
    ##    <date>     <chr>      <chr>          <chr> <dbl>  <dbl>      <dbl>
    ##  1 2020-04-06 St. Croix  Virgin Islands 78010    13      0         NA
    ##  2 2020-04-06 St. John   Virgin Islands 78020     2      0         NA
    ##  3 2020-04-06 St. Thomas Virgin Islands 78030    29      0         NA
    ##  4 2020-04-07 St. Croix  Virgin Islands 78010    14      0         NA
    ##  5 2020-04-07 St. John   Virgin Islands 78020     2      0         NA
    ##  6 2020-04-07 St. Thomas Virgin Islands 78030    29      0         NA
    ##  7 2020-04-08 St. Croix  Virgin Islands 78010    14      0         NA
    ##  8 2020-04-08 St. John   Virgin Islands 78020     2      0         NA
    ##  9 2020-04-08 St. Thomas Virgin Islands 78030    30      0         NA
    ## 10 2020-04-09 St. Croix  Virgin Islands 78010    14      0         NA
    ## # ℹ 5,134 more rows

``` r
#check df_covid for data missing fips

df_covid %>% 
  filter(is.na(fips))
```

    ## # A tibble: 23,678 × 6
    ##    date       county        state        fips  cases deaths
    ##    <date>     <chr>         <chr>        <chr> <dbl>  <dbl>
    ##  1 2020-03-01 New York City New York     <NA>      1      0
    ##  2 2020-03-01 Unknown       Rhode Island <NA>      2      0
    ##  3 2020-03-02 New York City New York     <NA>      1      0
    ##  4 2020-03-02 Unknown       Rhode Island <NA>      2      0
    ##  5 2020-03-03 New York City New York     <NA>      2      0
    ##  6 2020-03-03 Unknown       Rhode Island <NA>      2      0
    ##  7 2020-03-04 New York City New York     <NA>      2      0
    ##  8 2020-03-04 Unknown       Rhode Island <NA>      2      0
    ##  9 2020-03-05 New York City New York     <NA>      4      0
    ## 10 2020-03-05 Unknown       Rhode Island <NA>      2      0
    ## # ℹ 23,668 more rows
…
``` r
## TASK: Normalize cases and deaths
df_normalized <-
  df_data %>%
  filter(population > 0) %>%
  mutate(cases_per100k = (cases / population) * 100000,
         deaths_per100k = (deaths / population) * 100000
  ) 

df_normalized
```

    ## # A tibble: 2,474,010 × 9
    ##    date       county      state      fips  cases deaths population cases_per100k
    ##    <date>     <chr>       <chr>      <chr> <dbl>  <dbl>      <dbl>         <dbl>
    ##  1 2020-01-21 Snohomish   Washington 53061     1      0     786620       0.127  
    ##  2 2020-01-22 Snohomish   Washington 53061     1      0     786620       0.127  
    ##  3 2020-01-23 Snohomish   Washington 53061     1      0     786620       0.127  
    ##  4 2020-01-24 Cook        Illinois   17031     1      0    5223719       0.0191 
    ##  5 2020-01-24 Snohomish   Washington 53061     1      0     786620       0.127  
    ##  6 2020-01-25 Orange      California 06059     1      0    3164182       0.0316 
    ##  7 2020-01-25 Cook        Illinois   17031     1      0    5223719       0.0191 
    ##  8 2020-01-25 Snohomish   Washington 53061     1      0     786620       0.127  
    ##  9 2020-01-26 Maricopa    Arizona    04013     1      0    4253913       0.0235 
    ## 10 2020-01-26 Los Angeles California 06037     1      0   10098052       0.00990
    ## # ℹ 2,474,000 more rows
    ## # ℹ 1 more variable: deaths_per100k <dbl>
…
