…
    ## New names:
    ## Rows: 3220 Columns: 5
    ## ── Column specification
    ## ──────────────────────────────────────────────────────── Delimiter: "," chr
    ## (3): Geography, Geographic Area Name, Margin of Error!!Total dbl (1):
    ## Estimate!!Total lgl (1): ...5
    ## ℹ Use `spec()` to retrieve the full column specification for this data. ℹ
    ## Specify the column types or set `show_col_types = FALSE` to quiet this message.
    ## • `` -> `...5`

``` r
df_pop
```

    ## # A tibble: 3,220 × 5
    ##    Geography   `Geographic Area Name` population_estimate Margin of Error!!Tot…¹
    ##    <chr>       <chr>                                <dbl> <chr>                 
    ##  1 0500000US0… Autauga County, Alaba…               55200 *****                 
    ##  2 0500000US0… Baldwin County, Alaba…              208107 *****                 
    ##  3 0500000US0… Barbour County, Alaba…               25782 *****                 
    ##  4 0500000US0… Bibb County, Alabama                 22527 *****                 
    ##  5 0500000US0… Blount County, Alabama               57645 *****                 
    ##  6 0500000US0… Bullock County, Alaba…               10352 *****                 
    ##  7 0500000US0… Butler County, Alabama               20025 *****                 
    ##  8 0500000US0… Calhoun County, Alaba…              115098 *****                 
    ##  9 0500000US0… Chambers County, Alab…               33826 *****                 
    ## 10 0500000US0… Cherokee County, Alab…               25853 *****                 
    ## # ℹ 3,210 more rows
    ## # ℹ abbreviated name: ¹​`Margin of Error!!Total`
    ## # ℹ 1 more variable: ...5 <lgl>
…
    ## Rows: 3220 Columns: 482
    ## ── Column specification ────────────────────────────────────────────────────────
    ## Delimiter: ","
    ## chr (306): Geography, Geographic Area Name, Annotation of Margin of Error!!N...
    ## dbl (176): Estimate!!Number!!HOUSEHOLD INCOME BY RACE AND HISPANIC OR LATINO...
    ## 
    ## ℹ Use `spec()` to retrieve the full column specification for this data.
    ## ℹ Specify the column types or set `show_col_types = FALSE` to quiet this message.

``` r
df_income
```

    ## # A tibble: 3,220 × 482
    ##    Geography      `Geographic Area Name`   Estimate!!Number!!HOUSEHOLD INCOME …¹
    ##    <chr>          <chr>                                                    <dbl>
    ##  1 0500000US01001 Autauga County, Alabama                                  21115
    ##  2 0500000US01003 Baldwin County, Alabama                                  78622
    ##  3 0500000US01005 Barbour County, Alabama                                   9186
    ##  4 0500000US01007 Bibb County, Alabama                                      6840
    ##  5 0500000US01009 Blount County, Alabama                                   20600
    ##  6 0500000US01011 Bullock County, Alabama                                   3609
    ##  7 0500000US01013 Butler County, Alabama                                    6708
    ##  8 0500000US01015 Calhoun County, Alabama                                  45033
    ##  9 0500000US01017 Chambers County, Alabama                                 13516
    ## 10 0500000US01019 Cherokee County, Alabama                                 10606
    ## # ℹ 3,210 more rows
    ## # ℹ abbreviated name:
    ## #   ¹​`Estimate!!Number!!HOUSEHOLD INCOME BY RACE AND HISPANIC OR LATINO ORIGIN OF HOUSEHOLDER!!Households`
    ## # ℹ 479 more variables:
    ## #   `Margin of Error!!Number MOE!!HOUSEHOLD INCOME BY RACE AND HISPANIC OR LATINO ORIGIN OF HOUSEHOLDER!!Households` <dbl>,
    ## #   `Annotation of Margin of Error!!Number MOE!!HOUSEHOLD INCOME BY RACE AND HISPANIC OR LATINO ORIGIN OF HOUSEHOLDER!!Households` <chr>,
    ## #   `Annotation of Estimate!!Number!!HOUSEHOLD INCOME BY RACE AND HISPANIC OR LATINO ORIGIN OF HOUSEHOLDER!!Households` <chr>, …
…
